Homework12
…
Show All Code

Hide All Code

Homework12

Angela McMahon

4/21/2026

Loading in Three Worksheets of Penguin Data

read_excel("penguins.xlsx")

## # A tibble: 52 × 8
##    species island    bill_length_mm bill_depth_mm flipper_length_mm body_mass_g
##    <chr>   <chr>     <chr>          <chr>         <chr>             <chr>      
##  1 Adelie  Torgersen 39.1           18.7          181.0             3750.0     
##  2 Adelie  Torgersen 39.5           17.4          186.0             3800.0     
##  3 Adelie  Torgersen 40.3           18.0          195.0             3250.0     
##  4 Adelie  Torgersen NA             NA            NA                NA         
##  5 Adelie  Torgersen 36.7           19.3          193.0             3450.0     
##  6 Adelie  Torgersen 39.3           20.6          190.0             3650.0     
##  7 Adelie  Torgersen 38.9           17.8          181.0             3625.0     
##  8 Adelie  Torgersen 39.2           19.6          195.0             4675.0     
##  9 Adelie  Torgersen 34.1           18.1          193.0             3475.0     
## 10 Adelie  Torgersen 42.0           20.2          190.0             4250.0     
## # ℹ 42 more rows
## # ℹ 2 more variables: sex <chr>, year <dbl>
…
Loaded in R interface and duckDB. Established connection to new duckdb database. 5

Writing Combinded Penguins Data into DuckDB

dbWriteTable(con, "comb_islands", comb_islands)

Writing in the combined penguin tibble from the R environment into the duckdb as a table. 6

Connection of Table to Dplyr

comb_islands_db<-tbl(con,"comb_islands")
comb_islands_db%>%
  collect()

## # A tibble: 344 × 8
##    species island    bill_length_mm bill_depth_mm flipper_length_mm body_mass_g
##    <chr>   <chr>              <dbl>         <dbl>             <dbl>       <dbl>
##  1 Adelie  Torgersen           39.1          18.7               181        3750
##  2 Adelie  Torgersen           39.5          17.4               186        3800
##  3 Adelie  Torgersen           40.3          18                 195        3250
##  4 Adelie  Torgersen           NA            NA                  NA          NA
##  5 Adelie  Torgersen           36.7          19.3               193        3450
##  6 Adelie  Torgersen           39.3          20.6               190        3650
##  7 Adelie  Torgersen           38.9          17.8               181        3625
##  8 Adelie  Torgersen           39.2          19.6               195        4675
##  9 Adelie  Torgersen           34.1          18.1               193        3475
## 10 Adelie  Torgersen           42            20.2               190        4250
## # ℹ 334 more rows
## # ℹ 2 more variables: sex <chr>, year <dbl>
…
